abgabe/Versuch8_3.csv

Model,DPO2002B
Firmware Version,1.52

Point Format,Y,,,,,Point Format,Y
Horizontal Units,S,,,,,Horizontal Units,Hz
Horizontal Scale,781250,,,,,Horizontal Scale,781250
Sample Interval,78.125,,,,,Sample Interval,1562.5
Filter Frequency,7e+07,,,,,Filter Frequency,7e+07
Record Length,100000,,,,,Record Length,5000
Gating,0.0% to 100.0%,,0.0% to 100.0%,,,Gating,0.0% to 100.0%
Probe Attenuation,10,,10,,,Probe Attenuation,1
Vertical Units,V,,V,,,Vertical Units,NONE
Vertical Offset,0,,0,,,Vertical Offset,0
Vertical Scale,2,,2,,,Vertical Scale,20
Label,,,,,,Label,
TIME,CH1,CH1 Peak Detect,CH2,CH2 Peak Detect,,TIME,MATH
0.00000e+00,1.96,1.96,2,2,,0.000e+00,6.16875
7.81250e+01,1.96,1.96,2,2,,1.562e+03,4.64688
1.56250e+02,1.96,1.96,2,2,,3.125e+03,3.12813
2.34375e+02,1.96,1.96,2,2,,4.687e+03,-21.8969
3.12500e+02,1.96,1.96,2,2,,6.250e+03,-46.9219
3.90625e+02,1.96,1.96,2,2,,7.812e+03,-46.9219
4.68750e+02,1.96,1.96,2,2,,9.375e+03,-46.9219
5.46875e+02,1.96,1.96,2,2,,1.094e+04,-45.9875
6.25000e+02,1.96,1.96,2,2,,1.250e+04,-45.05
7.03125e+02,1.96,1.96,2,2,,1.406e+04,-48.0625
7.81250e+02,1.96,1.96,2,2,,1.562e+04,-51.0719
8.59375e+02,1.96,1.96,2,2,,1.719e+04,-47.5781
9.37500e+02,1.96,1.96,2,2,,1.875e+04,-44.0812
1.01562e+03,1.96,2.04,2.08,2.08,,2.031e+04,-46.0719
1.09375e+03,1.96,1.96,2,2,,2.187e+04,-48.0594
1.17187e+03,1.96,1.96,2,2,,2.344e+04,-47.4906
1.25000e+03,2.04,1.96,2,2,,2.500e+04,-46.9219
1.32812e+03,1.96,2.04,2,2,,2.656e+04,-46.2156
1.40625e+03,1.96,1.96,2,2,,2.812e+04,-45.5094
1.48437e+03,1.96,1.96,2,2,,2.969e+04,-48.2906
1.56250e+03,1.96,1.96,2,2,,3.125e+04,-51.0719
1.64062e+03,1.96,1.96,2,2,,3.281e+04,-50.0531
1.71875e+03,1.96,1.96,2,2,,3.437e+04,-49.0312
1.79687e+03,1.96,1.96,2,2,,3.594e+04,-50.0531
1.87500e+03,2.04,1.96,2,2,,3.750e+04,-51.0719
1.95312e+03,1.96,2.04,2,2,,3.906e+04,-49.5656
2.03125e+03,1.96,1.96,2,2,,4.062e+04,-48.0594
2.10937e+03,1.96,1.96,2,2,,4.219e+04,-51.5562
2.18750e+03,1.96,1.96,2,2,,4.375e+04,-55.05
2.26562e+03,1.96,1.96,2,2,,4.531e+04,-52.0406
2.34375e+03,1.96,1.96,2,2,,4.687e+04,-49.0312
2.42187e+03,1.96,1.96,2,2,,4.844e+04,-41.4969
2.50000e+03,1.96,1.96,2,2,,5.000e+04,-33.9625
2.57812e+03,1.96,1.96,2,2,,5.156e+04,-38.1719
2.65625e+03,1.96,1.96,2,2,,5.312e+04,-42.3781
2.73437e+03,1.96,1.96,2,2,,5.469e+04,-44.0688
2.81250e+03,2.04,1.96,2,2,,5.625e+04,-45.7563
2.89062e+03,1.96,2.04,2,2,,5.781e+04,-36.9813
2.96875e+03,1.96,1.96,2,2,,5.937e+04,-28.2031
3.04687e+03,1.96,1.96,2,2.08,,6.094e+04,-20.3156
3.12500e+03,1.96,1.96,2,2,,6.250e+04,-12.4281
3.20312e+03,1.96,1.96,2,2.08,,6.406e+04,-10.5906
3.28125e+03,1.96,1.96,2,2,,6.562e+04,-8.75312
3.35937e+03,1.96,1.96,2,2,,6.719e+04,-12.3031
3.43750e+03,1.96,1.96,2,2,,6.875e+04,-15.85
3.51562e+03,1.96,1.96,2,2,,7.031e+04,-23.2281
3.59375e+03,1.96,1.96,2,2,,7.187e+04,-30.6031
3.67187e+03,1.96,1.96,2,2.08,,7.344e+04,-35.1688
3.75000e+03,1.96,1.96,2,2,,7.500e+04,-39.7344
3.82812e+03,1.96,1.96,2,2,,7.656e+04,-41.9094
3.90625e+03,1.96,1.96,2,2,,7.812e+04,-44.0812
3.98437e+03,1.96,1.96,2,2,,7.969e+04,-46.3
4.06250e+03,1.96,1.96,2,2,,8.125e+04,-48.5187
4.14062e+03,1.96,1.96,2,2,,8.281e+04,-47.1375
4.21875e+03,1.96,1.96,2,2,,8.437e+04,-45.7563
4.29687e+03,1.96,1.96,2,2,,8.594e+04,-48.4156
4.37500e+03,1.96,1.96,2.08,2,,8.750e+04,-51.0719
4.45312e+03,1.96,1.96,2,2.08,,8.906e+04,-49.5656
4.53125e+03,1.96,1.96,2,2,,9.062e+04,-48.0594
4.60937e+03,1.96,1.96,2,2.08,,9.219e+04,-49.5656
4.68750e+03,1.96,1.96,2,2,,9.375e+04,-51.0719
4.76562e+03,1.96,1.96,2,2,,9.531e+04,-50.0531
4.84375e+03,1.96,1.96,2,2,,9.687e+04,-49.0312
4.92187e+03,1.96,1.96,2,2,,9.844e+04,-50.5375
5.00000e+03,1.96,1.96,2,2,,1.000e+05,-52.0406
5.07812e+03,1.96,1.96,2,2,,1.016e+05,-50.05
5.15625e+03,1.96,1.96,2,2,,1.031e+05,-48.0594
5.23437e+03,1.96,1.96,2,2,,1.047e+05,-48.0594
5.31250e+03,1.96,1.96,2,2,,1.062e+05,-48.0594
5.39062e+03,1.96,1.96,2,2,,1.078e+05,-47.4906
5.46875e+03,1.96,1.96,2,2,,1.094e+05,-46.9219
5.54687e+03,1.96,1.96,2,2.08,,1.109e+05,-48.9969
5.62500e+03,1.96,1.96,2,2,,1.125e+05,-51.0719
5.70312e+03,1.96,1.96,2,2,,1.141e+05,-49.5656
5.78125e+03,1.96,1.96,2,2,,1.156e+05,-48.0594
5.85937e+03,1.96,1.96,2,2,,1.172e+05,-48.5469
5.93750e+03,1.96,1.96,2,2,,1.187e+05,-49.0312
6.01562e+03,1.96,1.96,2,2,,1.203e+05,-52.0406
6.09375e+03,1.96,1.96,2,2,,1.219e+05,-55.05
6.17187e+03,1.96,1.96,2,2,,1.234e+05,-52.0406
6.25000e+03,1.96,1.96,2,2,,1.250e+05,-49.0312
6.32812e+03,1.96,1.96,2,2,,1.266e+05,-48.5469
6.40625e+03,1.96,1.96,2,2,,1.281e+05,-48.0594
6.48437e+03,1.96,1.96,2,2,,1.297e+05,-47.0406
6.56250e+03,1.96,1.96,2,2,,1.312e+05,-46.0187
6.64062e+03,1.96,1.96,2,2,,1.328e+05,-47.0406
6.71875e+03,1.96,1.96,2,2,,1.344e+05,-48.0594
6.79687e+03,1.96,1.96,2,2,,1.359e+05,-49.5656
6.87500e+03,1.96,1.96,2,2,,1.375e+05,-51.0719
6.95312e+03,1.96,1.96,2,2,,1.391e+05,-51.0719
7.03125e+03,1.96,1.96,2.08,2,,1.406e+05,-51.0719
7.10937e+03,1.96,1.96,2,2.08,,1.422e+05,-48.9969
7.18750e+03,1.96,1.96,2,2,,1.437e+05,-46.9219
7.26562e+03,1.96,1.96,2,2,,1.453e+05,-50.9875
7.34375e+03,1.96,1.96,2,2,,1.469e+05,-55.05
7.42187e+03,1.96,1.96,2,2,,1.484e+05,-53.5469
7.50000e+03,1.96,1.96,2,2,,1.500e+05,-52.0406
7.57812e+03,1.96,2.04,2,2,,1.516e+05,-49.4813
7.65625e+03,1.96,1.96,2,2,,1.531e+05,-46.9219
7.73437e+03,1.96,1.96,2,2,,1.547e+05,-48.9969
7.81250e+03,1.96,1.96,2,2,,1.562e+05,-51.0719
7.89062e+03,1.96,1.96,2,2,,1.578e+05,-51.0719
7.96875e+03,1.96,1.96,2,2,,1.594e+05,-51.0719
8.04687e+03,1.96,2.04,2,2,,1.609e+05,-50.0531
8.12500e+03,1.96,1.96,2,2,,1.625e+05,-49.0312
8.20312e+03,1.96,1.96,2,2,,1.641e+05,-49.0312
8.28125e+03,1.96,1.96,2,2,,1.656e+05,-49.0312
8.35937e+03,1.96,1.96,2,2.08,,1.672e+05,-49.0312
8.43750e+03,1.96,1.96,2,2,,1.687e+05,-49.0312
8.51562e+03,1.96,1.96,2,2,,1.703e+05,-50.0531
8.59375e+03,1.96,1.96,2,2,,1.719e+05,-51.0719
8.67187e+03,1.96,1.96,2,2,,1.734e+05,-51.0719
8.75000e+03,1.96,1.96,2,2,,1.750e+05,-51.0719
8.82812e+03,1.96,1.96,2,2,,1.766e+05,-51.0719
8.90625e+03,1.96,1.96,2,2,,1.781e+05,-51.0719
8.98437e+03,1.96,1.96,2,2,,1.797e+05,-51.0719
9.06250e+03,1.96,1.96,2,2,,1.812e+05,-51.0719
9.14062e+03,1.96,1.96,2,2,,1.828e+05,-54.5656
9.21875e+03,1.96,1.96,2,2,,1.844e+05,-58.0594
9.29687e+03,1.96,1.96,2,2,,1.859e+05,-53.0594
9.37500e+03,1.96,1.96,2,2,,1.875e+05,-48.0594
9.45312e+03,1.96,1.96,2,2,,1.891e+05,-51.5562
9.53125e+03,1.96,1.96,2,1.92,,1.906e+05,-55.05
9.60937e+03,1.96,1.96,2,2,,1.922e+05,-53.0625
9.68750e+03,1.96,1.96,2,2,,1.937e+05,-51.0719
9.76562e+03,1.96,1.96,2,2.08,,1.953e+05,-51.0719
9.84375e+03,1.96,1.96,2,2,,1.969e+05,-51.0719
9.92187e+03,1.96,1.96,2,2,,1.984e+05,-50.0531
1.00000e+04,1.96,1.96,2,2,,2.000e+05,-49.0312
1.00781e+04,1.96,1.96,2,2,,2.016e+05,-50.0531
1.01562e+04,1.96,1.96,2,2,,2.031e+05,-51.0719
1.02344e+04,1.96,1.96,2,2,,2.047e+05,-50.0531
1.03125e+04,1.96,1.96,2,2,,2.062e+05,-49.0312
1.03906e+04,1.96,1.96,2,2.08,,2.078e+05,-52.0406
1.04687e+04,1.96,1.96,2,2,,2.094e+05,-55.05
1.05469e+04,1.96,2.04,2,2,,2.109e+05,-55.05
1.06250e+04,1.96,1.96,2,2,,2.125e+05,-55.05
1.07031e+04,1.96,1.96,2,2,,2.141e+05,-53.0625
1.07812e+04,1.96,1.96,2,2,,2.156e+05,-51.0719
1.08594e+04,1.96,1.96,2,2,,2.172e+05,-51.0719
1.09375e+04,1.96,1.96,2,2,,2.187e+05,-51.0719
1.10156e+04,1.96,2.04,2,2,,2.203e+05,-54.5656
1.10937e+04,1.96,1.96,2,2,,2.219e+05,-58.0594
1.11719e+04,2.04,2.04,2,2,,2.234e+05,-54.5656
1.12500e+04,1.96,1.96,2,2,,2.250e+05,-51.0719
1.13281e+04,1.96,1.96,2,2.08,,2.266e+05,-53.0625
1.14062e+04,1.96,1.96,2,2,,2.281e+05,-55.05
1.14844e+04,1.96,1.96,2,2.08,,2.297e+05,-55.05
1.15625e+04,1.96,1.96,2,2,,2.312e+05,-55.05
1.16406e+04,2.04,2.04,2,2,,2.328e+05,-53.0625
1.17187e+04,1.96,1.96,2,2,,2.344e+05,-51.0719
1.17969e+04,1.96,1.96,2,2,,2.359e+05,-54.5656
1.18750e+04,1.96,1.96,2,2,,2.375e+05,-58.0594
1.19531e+04,2.04,2.04,2,2,,2.391e+05,-53.5469
1.20312e+04,1.96,1.96,2,2,,2.406e+05,-49.0312
1.21094e+04,1.96,1.96,2,2,,2.422e+05,-50.0531
1.21875e+04,1.96,1.96,2,2,,2.437e+05,-51.0719
1.22656e+04,2.04,2.04,2,2.08,,2.453e+05,-51.0719
1.23437e+04,1.96,1.96,2,2,,2.469e+05,-51.0719
1.24219e+04,1.96,1.96,2,2,,2.484e+05,-51.5562
1.25000e+04,1.96,1.96,2,2,,2.500e+05,-52.0406
1.25781e+04,1.96,1.96,2,2,,2.516e+05,-51.5562
1.26562e+04,1.96,1.96,2,2,,2.531e+05,-51.0719
1.27344e+04,2.04,2.04,2,2,,2.547e+05,-48.9969
1.28125e+04,1.96,1.96,2,2,,2.562e+05,-46.9219
1.28906e+04,1.96,1.96,2,2,,2.578e+05,-50.9875
1.29687e+04,1.96,1.96,2,2,,2.594e+05,-55.05
1.30469e+04,1.96,1.96,2,2,,2.609e+05,-55.05
1.31250e+04,1.96,1.96,2,2,,2.625e+05,-55.05
1.32031e+04,1.96,1.96,2,2.08,,2.641e+05,-52.0406
1.32812e+04,1.96,1.96,2,2,,2.656e+05,-49.0312
1.33594e+04,1.96,1.96,2,2,,2.672e+05,-53.5469
1.34375e+04,1.96,1.96,2,2,,2.687e+05,-58.0594
1.35156e+04,1.96,1.96,2,2,,2.703e+05,-53.5469
1.35937e+04,1.96,1.96,2,2,,2.719e+05,-49.0312
1.36719e+04,1.96,1.96,2,2,,2.734e+05,-52.0406
1.37500e+04,1.96,1.96,2,2,,2.750e+05,-55.05
1.38281e+04,1.96,1.96,2,2,,2.766e+05,-55.05
1.39062e+04,1.96,1.96,2,2,,2.781e+05,-55.05
1.39844e+04,1.96,1.96,2,2,,2.797e+05,-52.0406
1.40625e+04,1.96,1.96,2,2,,2.812e+05,-49.0312
1.41406e+04,1.96,1.96,2,2,,2.828e+05,-52.0406
1.42187e+04,1.96,1.96,2,2,,2.844e+05,-55.05
1.42969e+04,2.04,2.04,2,2,,2.859e+05,-55.05
1.43750e+04,1.96,1.96,2,2,,2.875e+05,-55.05
1.44531e+04,1.96,1.96,2,2,,2.891e+05,-55.05
1.45312e+04,1.96,1.96,2,2,,2.906e+05,-55.05
1.46094e+04,1.96,1.96,2,2,,2.922e+05,-52.0406
1.46875e+04,1.96,1.96,2,2,,2.937e+05,-49.0312
1.47656e+04,1.96,1.96,2,2,,2.953e+05,-52.0406
1.48437e+04,1.96,1.96,2,2,,2.969e+05,-55.05
1.49219e+04,1.96,1.96,2,2,,2.984e+05,-55.05
1.50000e+04,1.96,1.96,2,2,,3.000e+05,-55.05
1.50781e+04,1.96,2.04,2,2,,3.016e+05,-52.0406
1.51562e+04,1.96,1.96,2,1.92,,3.031e+05,-49.0312
1.52344e+04,1.96,1.96,1.92,2,,3.047e+05,-52.0406
1.53125e+04,1.96,1.88,1.84,1.52,,3.062e+05,-55.05
1.53906e+04,1.96,1.96,1.52,1.92,,3.078e+05,-55.05
1.54687e+04,1.88,1.88,1.2,0.8,,3.094e+05,-55.05
1.55469e+04,1.88,1.88,0.8,1.44,,3.109e+05,-55.05
1.56250e+04,1.8,1.8,0.24,-0.32,,3.125e+05,-55.05
1.57031e+04,1.8,1.88,-0.32,0.56,,3.141e+05,-55.05
1.57812e+04,1.72,1.72,-0.88,-1.36,,3.156e+05,-55.05
1.58594e+04,1.72,1.8,-1.36,-0.56,,3.172e+05,-53.0625
1.59375e+04,1.72,1.64,-1.68,-1.84,,3.187e+05,-51.0719
1.60156e+04,1.64,1.72,-1.84,-1.52,,3.203e+05,-53.0625
1.60937e+04,1.64,1.56,-1.84,-1.84,,3.219e+05,-55.05
1.61719e+04,1.56,1.64,-1.76,-1.76,,3.234e+05,-53.0625
1.62500e+04,1.56,1.48,-1.68,-1.76,,3.250e+05,-51.0719
1.63281e+04,1.56,1.56,-1.6,-1.6,,3.266e+05,-51.0719
1.64062e+04,1.48,1.48,-1.6,-1.6,,3.281e+05,-51.0719
1.64844e+04,1.48,1.48,-1.52,-1.52,,3.297e+05,-51.0719
1.65625e+04,1.48,1.48,-1.76,-1.92,,3.312e+05,-51.0719
1.66406e+04,1.48,1.48,-1.92,-1.68,,3.328e+05,-53.0625
1.67187e+04,1.48,1.4,-2.08,-2.16,,3.344e+05,-55.05
1.67969e+04,1.48,1.48,-2.16,-1.92,,3.359e+05,-52.0406
1.68750e+04,1.48,1.48,-2.16,-2.24,,3.375e+05,-49.0312
1.69531e+04,1.48,1.48,-2.16,-2.16,,3.391e+05,-50.0531
1.70312e+04,1.48,1.4,-2.08,-2.16,,3.406e+05,-51.0719
1.71094e+04,1.48,1.48,-2,-2,,3.422e+05,-51.0719
1.71875e+04,1.48,1.4,-1.92,-2,,3.437e+05,-51.0719
1.72656e+04,1.48,1.48,-1.92,-1.92,,3.453e+05,-54.5656
1.73437e+04,1.48,1.4,-1.92,-1.92,,3.469e+05,-58.0594
1.74219e+04,1.48,1.48,-1.92,-1.92,,3.484e+05,-54.5656
1.75000e+04,1.48,1.4,-2,-2.08,,3.500e+05,-51.0719
1.75781e+04,1.48,1.48,-2.08,-2,,3.516e+05,-53.0625
1.76562e+04,1.48,1.4,-2.08,-2.16,,3.531e+05,-55.05
1.77344e+04,1.48,1.48,-2.16,-2.08,,3.547e+05,-53.0625
1.78125e+04,1.48,1.4,-2.08,-2.16,,3.562e+05,-51.0719
1.78906e+04,1.48,1.48,-2.08,-2.08,,3.578e+05,-53.0625
1.79687e+04,1.48,1.4,-2.08,-2.16,,3.594e+05,-55.05
1.80469e+04,1.48,1.48,-2,-2,,3.609e+05,-52.0406
1.81250e+04,1.48,1.4,-2,-2,,3.625e+05,-49.0312
1.82031e+04,1.48,1.48,-2,-2,,3.641e+05,-52.0406
1.82812e+04,1.48,1.4,-2,-2.08,,3.656e+05,-55.05
1.83594e+04,1.48,1.48,-2,-2,,3.672e+05,-56.5563
1.84375e+04,1.48,1.4,-2,-2.08,,3.687e+05,-58.0594
1.85156e+04,1.48,1.48,-2.08,-2,,3.703e+05,-56.5563
1.85937e+04,1.48,1.48,-2.08,-2.16,,3.719e+05,-55.05
1.86719e+04,1.48,1.48,-2.08,-2.08,,3.734e+05,-55.05
1.87500e+04,1.48,1.4,-2.08,-2.08,,3.750e+05,-55.05
1.88281e+04,1.48,1.48,-2.08,-2.08,,3.766e+05,-55.05
1.89062e+04,1.48,1.4,-2.08,-2.08,,3.781e+05,-55.05
1.89844e+04,1.48,1.48,-2,-2,,3.797e+05,-50.9875
1.90625e+04,1.48,1.4,-2,-2.08,,3.812e+05,-46.9219
1.91406e+04,1.48,1.48,-2,-2,,3.828e+05,-50.9875
1.92187e+04,1.48,1.4,-2,-2.08,,3.844e+05,-55.05
1.92969e+04,1.48,1.48,-2.08,-2,,3.859e+05,-53.0625
1.93750e+04,1.48,1.4,-2.08,-2.08,,3.875e+05,-51.0719
1.94531e+04,1.48,1.48,-2.08,-2.08,,3.891e+05,-51.0719
1.95312e+04,1.48,1.4,-2.08,-2.08,,3.906e+05,-51.0719
1.96094e+04,1.48,1.48,-2.08,-2.08,,3.922e+05,-53.0625
1.96875e+04,1.48,1.4,-2.08,-2.08,,3.937e+05,-55.05
1.97656e+04,1.48,1.48,-2.08,-2,,3.953e+05,-51.5562
1.98437e+04,1.48,1.48,-2.08,-2.08,,3.969e+05,-48.0594
1.99219e+04,1.48,1.48,-2,-2,,3.984e+05,-53.0594
2.00000e+04,1.48,1.4,-2.08,-2.08,,4.000e+05,-58.0594
2.00781e+04,1.48,1.48,-2,-2,,4.016e+05,-54.5656
2.01562e+04,1.48,1.4,-2,-2.08,,4.031e+05,-51.0719
2.02344e+04,1.48,1.48,-2,-2,,4.047e+05,-53.0625
2.03125e+04,1.48,1.48,-2.08,-2.08,,4.062e+05,-55.05
2.03906e+04,1.48,1.48,-2,-2,,4.078e+05,-51.5562
2.04687e+04,1.48,1.4,-2.08,-2.08,,4.094e+05,-48.0594
2.05469e+04,1.48,1.48,-2.08,-2,,4.109e+05,-51.5562
2.06250e+04,1.48,1.4,-2,-2.08,,4.125e+05,-55.05
2.07031e+04,1.48,1.48,-2,-2,,4.141e+05,-53.5469
2.07812e+04,1.48,1.4,-2,-2.08,,4.156e+05,-52.0406
2.08594e+04,1.48,1.48,-2,-2,,4.172e+05,-50.5375
2.09375e+04,1.4,1.4,-2.08,-2.08,,4.187e+05,-49.0312
2.10156e+04,1.48,1.48,-2,-2,,4.203e+05,-52.0406
2.10937e+04,1.4,1.4,-2,-2.08,,4.219e+05,-55.05
2.11719e+04,1.48,1.48,-2.08,-2,,4.234e+05,-53.0625
2.12500e+04,1.48,1.4,-2,-2.08,,4.250e+05,-51.0719
2.13281e+04,1.4,1.48,-2.08,-2,,4.266e+05,-51.0719
2.14062e+04,1.48,1.4,-2.08,-2.08,,4.281e+05,-51.0719
2.14844e+04,1.4,1.48,-2,-2,,4.297e+05,-53.0625
2.15625e+04,1.4,1.4,-2,-2.08,,4.312e+05,-55.05
2.16406e+04,1.4,1.4,-2,-2,,4.328e+05,-53.0625
2.17187e+04,1.4,1.4,-2.08,-2.08,,4.344e+05,-51.0719
2.17969e+04,1.48,1.48,-2,-2,,4.359e+05,-51.0719
2.18750e+04,1.48,1.4,-2.08,-2.08,,4.375e+05,-51.0719
2.19531e+04,1.48,1.48,-2.08,-2,,4.391e+05,-53.0625
2.20312e+04,1.4,1.4,-2,-2.08,,4.406e+05,-55.05
2.21094e+04,1.4,1.48,-2.08,-2,,4.422e+05,-52.0406
2.21875e+04,1.4,1.4,-2.08,-2.08,,4.437e+05,-49.0312
2.22656e+04,1.48,1.48,-2.08,-2.08,,4.453e+05,-49.0312
2.23437e+04,1.4,1.4,-2.08,-2.08,,4.469e+05,-49.0312
2.24219e+04,1.48,1.48,-2.08,-2,,4.484e+05,-50.0531
2.25000e+04,1.48,1.4,-2,-2.08,,4.500e+05,-51.0719
2.25781e+04,1.4,1.48,-2,-2,,4.516e+05,-51.5562
2.26562e+04,1.48,1.4,-2,-2.08,,4.531e+05,-52.0406
2.27344e+04,1.4,1.48,-2.08,-2,,4.547e+05,-51.5562
2.28125e+04,1.4,1.4,-2.08,-2.08,,4.562e+05,-51.0719
2.28906e+04,1.48,1.48,-2.08,-2.08,,4.578e+05,-49.5656
2.29687e+04,1.48,1.4,-2.08,-2.08,,4.594e+05,-48.0594
2.30469e+04,1.48,1.48,-2.08,-2.08,,4.609e+05,-47.4906
2.31250e+04,1.4,1.32,-2.08,-2.08,,4.625e+05,-46.9219
2.32031e+04,1.48,1.48,-2.08,-2.08,,4.641e+05,-48.9969
2.32812e+04,1.4,1.4,-2.08,-2.08,,4.656e+05,-51.0719
2.33594e+04,1.4,1.4,-2.08,-2.08,,4.672e+05,-51.0719
2.34375e+04,1.4,1.4,-2.08,-2.08,,4.687e+05,-51.0719
2.35156e+04,1.4,1.4,-2,-2,,4.703e+05,-53.0625
2.35937e+04,1.4,1.4,-2.08,-2.08,,4.719e+05,-55.05
2.36719e+04,1.4,1.4,-2,-2,,4.734e+05,-53.0625
2.37500e+04,1.4,1.4,-2.08,-2.08,,4.750e+05,-51.0719
2.38281e+04,1.4,1.4,-2.08,-2,,4.766e+05,-51.0719
2.39062e+04,1.4,1.32,-2.08,-2.08,,4.781e+05,-51.0719
2.39844e+04,1.4,1.4,-2.08,-2.08,,4.797e+05,-51.0719
2.40625e+04,1.4,1.4,-2.08,-2.08,,4.812e+05,-51.0719
2.41406e+04,1.48,1.48,-2,-2,,4.828e+05,-53.0625
2.42187e+04,1.4,1.4,-2,-2.08,,4.844e+05,-55.05
2.42969e+04,1.4,1.4,-2,-2,,4.859e+05,-51.5562
2.43750e+04,1.4,1.4,-2,-2.08,,4.875e+05,-48.0594
2.44531e+04,1.4,1.4,-2.08,-2,,4.891e+05,-51.5562
2.45312e+04,1.4,1.4,-2.08,-2.08,,4.906e+05,-55.05
2.46094e+04,1.4,1.4,-2.08,-2.08,,4.922e+05,-55.05
2.46875e+04,1.4,1.4,-2.08,-2.08,,4.937e+05,-55.05
2.47656e+04,1.4,1.4,-2.08,-2.08,,4.953e+05,-52.0406
2.48437e+04,1.4,1.32,-2,-2.08,,4.969e+05,-49.0312
2.49219e+04,1.4,1.4,-2.08,-2,,4.984e+05,-50.0531
2.50000e+04,1.4,1.4,-2.08,-2.08,,5.000e+05,-51.0719
2.50781e+04,1.4,1.4,-2,-2,,5.016e+05,-50.0531
2.51562e+04,1.4,1.4,-2.08,-2.08,,5.031e+05,-49.0312
2.52344e+04,1.4,1.4,-2.08,-2,,5.047e+05,-50.0531
2.53125e+04,1.4,1.32,-2.08,-2.08,,5.062e+05,-51.0719
2.53906e+04,1.4,1.4,-2.08,-2.08,,5.078e+05,-51.0719
2.54687e+04,1.4,1.32,-2.08,-2.08,,5.094e+05,-51.0719
2.55469e+04,1.4,1.4,-2,-2,,5.109e+05,-51.0719
2.56250e+04,1.4,1.32,-2,-2.08,,5.125e+05,-51.0719
2.57031e+04,1.4,1.4,-2,-2,,5.141e+05,-49.5656
2.57812e+04,1.4,1.32,-2.08,-2.08,,5.156e+05,-48.0594
2.58594e+04,1.4,1.4,-2.08,-2,,5.172e+05,-51.5562
2.59375e+04,1.4,1.32,-2,-2.08,,5.187e+05,-55.05
2.60156e+04,1.4,1.4,-2,-2,,5.203e+05,-53.0625
2.60937e+04,1.4,1.32,-2,-2.08,,5.219e+05,-51.0719
2.61719e+04,1.4,1.4,-2,-2,,5.234e+05,-53.0625
2.62500e+04,1.4,1.32,-2.08,-2.08,,5.250e+05,-55.05
2.63281e+04,1.4,1.4,-2.08,-2.08,,5.266e+05,-50.9875
2.64062e+04,1.4,1.32,-2,-2.08,,5.281e+05,-46.9219
2.64844e+04,1.4,1.4,-2,-2,,5.297e+05,-48.9969
2.65625e+04,1.4,1.32,-2,-2.08,,5.312e+05,-51.0719
2.66406e+04,1.4,1.4,-2,-2,,5.328e+05,-50.0531
2.67187e+04,1.4,1.32,-2.08,-2.08,,5.344e+05,-49.0312
2.67969e+04,1.4,1.4,-2,-2,,5.359e+05,-50.0531
2.68750e+04,1.4,1.32,-2,-2.08,,5.375e+05,-51.0719
2.69531e+04,1.4,1.4,-2,-2,,5.391e+05,-51.0719
2.70312e+04,1.4,1.32,-2,-2.08,,5.406e+05,-51.0719
2.71094e+04,1.4,1.4,-2.08,-2,,5.422e+05,-48.2906
2.71875e+04,1.32,1.32,-2,-2.08,,5.437e+05,-45.5094
2.72656e+04,1.4,1.4,-2,-2,,5.453e+05,-50.2812
2.73437e+04,1.4,1.32,-2,-2.08,,5.469e+05,-55.05
2.74219e+04,1.4,1.4,-2.08,-2,,5.484e+05,-53.0625
2.75000e+04,1.4,1.32,-2.08,-2.08,,5.500e+05,-51.0719
2.75781e+04,1.4,1.4,-2.08,-2,,5.516e+05,-51.0719
2.76562e+04,1.4,1.32,-2,-2.08,,5.531e+05,-51.0719
2.77344e+04,1.4,1.4,-2,-2,,5.547e+05,-50.0531
2.78125e+04,1.4,1.32,-2,-2.08,,5.562e+05,-49.0312
2.78906e+04,1.4,1.4,-2,-2,,5.578e+05,-52.0406
2.79687e+04,1.32,1.32,-2,-2.08,,5.594e+05,-55.05
2.80469e+04,1.32,1.32,-2,-2,,5.609e+05,-52.0406
2.81250e+04,1.4,1.32,-2,-2.08,,5.625e+05,-49.0312
2.82031e+04,1.32,1.4,-2,-2,,5.641e+05,-50.5375
2.82812e+04,1.4,1.32,-2,-2.08,,5.656e+05,-52.0406
2.83594e+04,1.32,1.4,-2,-2,,5.672e+05,-51.5562
2.84375e+04,1.32,1.32,-2.08,-2.08,,5.687e+05,-51.0719
2.85156e+04,1.4,1.4,-2.08,-2,,5.703e+05,-54.5656
2.85937e+04,1.32,1.32,-2,-2.08,,5.719e+05,-58.0594
2.86719e+04,1.4,1.4,-2.08,-2,,5.734e+05,-54.5656
2.87500e+04,1.32,1.32,-2,-2.08,,5.750e+05,-51.0719
2.88281e+04,1.32,1.32,-2.08,-2,,5.766e+05,-50.0531
2.89062e+04,1.32,1.32,-2.08,-2.08,,5.781e+05,-49.0312
2.89844e+04,1.32,1.32,-2,-2,,5.797e+05,-52.0406
2.90625e+04,1.32,1.32,-2,-2.08,,5.812e+05,-55.05
2.91406e+04,1.32,1.32,-2.08,-2,,5.828e+05,-55.05
2.92187e+04,1.32,1.32,-2.08,-2.08,,5.844e+05,-55.05
2.92969e+04,1.32,1.32,-2,-2,,5.859e+05,-52.0406
2.93750e+04,1.32,1.32,-2.08,-2.08,,5.875e+05,-49.0312
2.94531e+04,1.32,1.32,-2,-2,,5.891e+05,-52.0406
2.95312e+04,1.32,1.24,-2,-2.08,,5.906e+05,-55.05
2.96094e+04,1.32,1.32,-2,-2,,5.922e+05,-53.0625
2.96875e+04,1.32,1.24,-2,-2.08,,5.937e+05,-51.0719
2.97656e+04,1.32,1.32,-2,-2,,5.953e+05,-51.0719
2.98437e+04,1.32,1.24,-2.08,-2.08,,5.969e+05,-51.0719
2.99219e+04,1.32,1.32,-2.08,-2,,5.984e+05,-50.0531
3.00000e+04,1.32,1.32,-2.08,-2.08,,6.000e+05,-49.0312
3.00781e+04,1.32,1.32,-2.08,-2.08,,6.016e+05,-50.0531
3.01562e+04,1.32,1.24,-2.08,-2.08,,6.031e+05,-51.0719
3.02344e+04,1.32,1.32,-2,-2,,6.047e+05,-51.0719
3.03125e+04,1.32,1.32,-2.08,-2.08,,6.062e+05,-51.0719
3.03906e+04,1.32,1.32,-2.08,-2,,6.078e+05,-53.0625
3.04687e+04,1.32,1.24,-2,-2.08,,6.094e+05,-55.05
3.05469e+04,1.32,1.32,-2.08,-2,,6.109e+05,-50.9875
3.06250e+04,1.32,1.24,-2.08,-2.08,,6.125e+05,-46.9219
3.07031e+04,1.32,1.32,-2.08,-2,,6.141e+05,-50.9875
3.07812e+04,1.32,1.24,-2.08,-2.08,,6.156e+05,-55.05
3.08594e+04,1.32,1.32,-2.08,-2,,6.172e+05,-52.0406
3.09375e+04,1.32,1.24,-2.08,-2.08,,6.187e+05,-49.0312
3.10156e+04,1.32,1.32,-2.08,-2.08,,6.203e+05,-52.0406
3.10937e+04,1.32,1.24,-2.08,-2.08,,6.219e+05,-55.05
3.11719e+04,1.24,1.32,-2,-2,,6.234e+05,-55.05
3.12500e+04,1.32,1.24,-2,-2,,6.250e+05,-55.05
